EDA-challenge
…
The relationship continues to be positive at the Family level.

Part 7: Create diet_strategy variable dietary categories, plus boxplots for group size of species grouped by dietary strategy.

Create a new variable

Create diet_strategy with conditional statement. If Fruit or Leaves >= 50% of the diet, the species will be assigned the frugivore or folivore category, respectively. All other species will be assigned omnivore

d <- d %>% mutate(diet_strategy=case_when(Fruit>=50 ~ "frugivore", Leaves>=50 ~ "folivore", Fruit<50&Leaves<50~"omnivore"))%>% relocate(Scientific_Name, Family, Genus, Species, diet_strategy, Fruit, Leaves)
print(d)

# A tibble: 213 × 27
   Scientific_Name             Family   Genus Species diet_strategy Fruit Leaves
   <chr>                       <chr>    <chr> <chr>   <chr>         <dbl> <chr> 
 1 Allenopithecus_nigroviridis Cercopi… Alle… nigrov… <NA>           NA   <NA>  
 2 Allocebus_trichotis         Cercopi… Allo… tricho… <NA>           NA   <NA>  
 3 Alouatta_belzebul           Atelidae Alou… belzeb… frugivore      57.3 19.1  
 4 Alouatta_caraya             Atelidae Alou… caraya  folivore       23.8 67.7  
 5 Alouatta_guariba            Atelidae Alou… guariba folivore        5.2 73    
 6 Alouatta_palliata           Atelidae Alou… pallia… folivore       33.1 56.4  
 7 Alouatta_pigra              Atelidae Alou… pigra   omnivore       40.8 45.1  
 8 Alouatta_seniculus          Atelidae Alou… senicu… omnivore       40   48.1  
 9 Aotus_azarai                Cebidae  Aotus azarai  omnivore       45   41    
10 Aotus_brumbacki             Cebidae  Aotus brumba… <NA>           NA   <NA>  
# ℹ 203 more rows
# ℹ 20 more variables: Brain_Size_Species_Mean <dbl>,
#   Body_mass_male_mean <dbl>, Body_mass_female_mean <dbl>,
#   MeanGroupSize <dbl>, AdultMales <dbl>, AdultFemale <dbl>,
#   GR_MidRangeLat_dd <dbl>, Precip_Mean_mm <dbl>, Temp_Mean_degC <dbl>,
#   HomeRange_km2 <dbl>, DayLength_km <dbl>, Fauna <chr>,
#   Canine_Dimorphism <dbl>, Feed <dbl>, Move <dbl>, Rest <dbl>, …
…
Part 8: One-line Code Challenge with {dplyr} and forward piping

d_8 <- d #didn't want to overwrite d while testing this out, d_8 for d, part 8
d_8 <- d_8 %>% mutate(Binomial=paste(Genus, Species, sep=" ")) %>%
  select(Binomial, Family, Brain_Size_Species_Mean, Body_mass_male_mean) %>%
  group_by(Family) %>%
  mutate(Brain_size_family_mean=mean(Brain_Size_Species_Mean, na.rm=TRUE), #I wanted to preserve genus/species data
            Body_mass_male_family_mean=mean(Body_mass_male_mean, na.rm=TRUE)) %>% #so I used mutate(), not summarise()
  arrange(Brain_size_family_mean) %>%
  relocate(Binomial, Family, Brain_size_family_mean) %>% #relocate Mean Family Brain Size to show in head()
  ungroup() #and ungrouped it at the end. If I used summarise(), I'd lose the nice Binomial variable I created
print(d_8)

# A tibble: 213 × 6
   Binomial            Family      Brain_size_family_mean Brain_Size_Species_M…¹
   <chr>               <chr>                        <dbl>                  <dbl>
 1 Tarsius bancanus    Tarsiidae                     3.26                   3.16
 2 Tarsius dentatus    Tarsiidae                     3.26                  NA   
 3 Tarsius syrichta    Tarsiidae                     3.26                   3.36
 4 Cheirogaleus major  Cheirogali…                   4.04                   5.81
 5 Cheirogaleus medius Cheirogali…                   4.04                   2.6 
 6 Microcebus murinus  Cheirogali…                   4.04                   1.63
 7 Microcebus myoxinus Cheirogali…                   4.04                  NA   
 8 Microcebus rufus    Cheirogali…                   4.04                   1.72
 9 Mirza coquereli     Cheirogali…                   4.04                   5.8 
10 Phaner furcifer     Cheirogali…                   4.04                   6.68
# ℹ 203 more rows
# ℹ abbreviated name: ¹​Brain_Size_Species_Mean
# ℹ 2 more variables: Body_mass_male_mean <dbl>,
#   Body_mass_male_family_mean <dbl>
